{
    "/js/app.js": "/js/app.js",
    "/css/app.css": "/css/app.css",
    "/0.1c6ed9c1faba8ae9b398.hot-update.js": "/0.1c6ed9c1faba8ae9b398.hot-update.js",
    "/0.111834218c4883e06948.hot-update.js": "/0.111834218c4883e06948.hot-update.js",
    "/0.d040e2d4fc64042c67d1.hot-update.js": "/0.d040e2d4fc64042c67d1.hot-update.js",
    "/0.df34078624202cc94186.hot-update.js": "/0.df34078624202cc94186.hot-update.js",
    "/0.9de9d752874ab699a161.hot-update.js": "/0.9de9d752874ab699a161.hot-update.js",
    "/0.47eb0343c92f13865e00.hot-update.js": "/0.47eb0343c92f13865e00.hot-update.js",
    "/0.808e0d74c53cdd1f91e9.hot-update.js": "/0.808e0d74c53cdd1f91e9.hot-update.js",
    "/0.2a60d1c66d0e52dade9d.hot-update.js": "/0.2a60d1c66d0e52dade9d.hot-update.js",
    "/0.339c1d459f418031cca7.hot-update.js": "/0.339c1d459f418031cca7.hot-update.js",
    "/0.8ff391c83d6deafbffc9.hot-update.js": "/0.8ff391c83d6deafbffc9.hot-update.js",
    "/0.1c05fd6463de726809bd.hot-update.js": "/0.1c05fd6463de726809bd.hot-update.js",
    "/0.e3b83d136af5a2c1c902.hot-update.js": "/0.e3b83d136af5a2c1c902.hot-update.js",
    "/0.c715b5cdf5fe41084df7.hot-update.js": "/0.c715b5cdf5fe41084df7.hot-update.js",
    "/0.1ea8cf7d8c1297de3a5b.hot-update.js": "/0.1ea8cf7d8c1297de3a5b.hot-update.js",
    "/0.89c4e2295aec3b3edf60.hot-update.js": "/0.89c4e2295aec3b3edf60.hot-update.js",
    "/0.4b2ebd36660e9cc2657a.hot-update.js": "/0.4b2ebd36660e9cc2657a.hot-update.js",
    "/0.4397d3f9225cb51afc8d.hot-update.js": "/0.4397d3f9225cb51afc8d.hot-update.js",
    "/0.5478f1ea7b014d5ee2ee.hot-update.js": "/0.5478f1ea7b014d5ee2ee.hot-update.js",
    "/0.7d3ff06c864cebe9edaf.hot-update.js": "/0.7d3ff06c864cebe9edaf.hot-update.js",
    "/0.0a7b5aecfd852100b6e4.hot-update.js": "/0.0a7b5aecfd852100b6e4.hot-update.js",
    "/0.4861f7f2312c8b3ad473.hot-update.js": "/0.4861f7f2312c8b3ad473.hot-update.js",
    "/0.77193bb08712fde8604e.hot-update.js": "/0.77193bb08712fde8604e.hot-update.js",
    "/0.f32305d07216ac19876c.hot-update.js": "/0.f32305d07216ac19876c.hot-update.js",
    "/0.cd95d5f12b8b8b44e36d.hot-update.js": "/0.cd95d5f12b8b8b44e36d.hot-update.js",
    "/0.f50f9fb7dddcd1d0536b.hot-update.js": "/0.f50f9fb7dddcd1d0536b.hot-update.js",
    "/0.1b5e3153c5ffc8a5ac17.hot-update.js": "/0.1b5e3153c5ffc8a5ac17.hot-update.js",
    "/0.f5ebb3aebbeb7fd94bf1.hot-update.js": "/0.f5ebb3aebbeb7fd94bf1.hot-update.js",
    "/0.ad80a464aa30a4e44a3e.hot-update.js": "/0.ad80a464aa30a4e44a3e.hot-update.js",
    "/0.ad00dd3bb85aa8c22a95.hot-update.js": "/0.ad00dd3bb85aa8c22a95.hot-update.js",
    "/0.61cf4fd7aed7ebba02e2.hot-update.js": "/0.61cf4fd7aed7ebba02e2.hot-update.js",
    "/0.796e177336cc1ee5a619.hot-update.js": "/0.796e177336cc1ee5a619.hot-update.js",
    "/0.d75a58196c61e48ec656.hot-update.js": "/0.d75a58196c61e48ec656.hot-update.js",
    "/0.a255e87bc1bc157e736b.hot-update.js": "/0.a255e87bc1bc157e736b.hot-update.js",
    "/0.f1a053b1ca2ea4cffd33.hot-update.js": "/0.f1a053b1ca2ea4cffd33.hot-update.js",
    "/0.91d264341f7a7beb5347.hot-update.js": "/0.91d264341f7a7beb5347.hot-update.js",
    "/0.5890f2614b898bb44dda.hot-update.js": "/0.5890f2614b898bb44dda.hot-update.js",
    "/0.990ba8494286e1eafb58.hot-update.js": "/0.990ba8494286e1eafb58.hot-update.js",
    "/0.d799c79c0e4fed8407e7.hot-update.js": "/0.d799c79c0e4fed8407e7.hot-update.js",
    "/0.d045160495181e86670a.hot-update.js": "/0.d045160495181e86670a.hot-update.js",
    "/0.ae17510db1e81647bdfc.hot-update.js": "/0.ae17510db1e81647bdfc.hot-update.js"
}
